<?xml version="1.0" encoding="utf-8"?>
<!-- Generator: Adobe Illustrator 19.1.0, SVG Export Plug-In . SVG Version: 6.00 Build 0)  -->
<svg version="1.1" id="Layer_2" xmlns="http://www.w3.org/2000/svg" xmlns:xlink="http://www.w3.org/1999/xlink" x="0px" y="0px"
	 viewBox="0 0 24.2 24.5" style="enable-background:new 0 0 24.2 24.5;" xml:space="preserve">
<style type="text/css">
	.st0{fill:none;stroke:#FFFFFF;stroke-width:1.75;stroke-linecap:round;stroke-linejoin:round;stroke-miterlimit:10;}
</style>
<g>
	<g>
		<g>
			<line class="st0" x1="9" y1="5.7" x2="18.9" y2="5.7"/>
			<line class="st0" x1="5.3" y1="5.7" x2="5.4" y2="5.7"/>
		</g>
		<g>
			<line class="st0" x1="9" y1="10.1" x2="18.9" y2="10.1"/>
			<line class="st0" x1="5.3" y1="10.1" x2="5.4" y2="10.1"/>
		</g>
		<g>
			<line class="st0" x1="9" y1="14.5" x2="18.9" y2="14.5"/>
			<line class="st0" x1="5.3" y1="14.5" x2="5.4" y2="14.5"/>
		</g>
	</g>
	<path class="st0" d="M20.4,0.9H3.9c-1.7,0-3,1.3-3,3v11.8c0,1.7,1.3,3,3,3h2.3c3.2,1,1.6,5,1.6,5l6.6-5h6c1.7,0,3-1.3,3-3V3.9
		C23.4,2.2,22,0.9,20.4,0.9z"/>
</g>
</svg>
