<?xml version="1.0" encoding="utf-8"?>
<!-- Generator: Adobe Illustrator 19.1.0, SVG Export Plug-In . SVG Version: 6.00 Build 0)  -->
<svg version="1.1" id="Layer_2" xmlns="http://www.w3.org/2000/svg" xmlns:xlink="http://www.w3.org/1999/xlink" x="0px" y="0px"
	 viewBox="0 0 21.5 25.3" style="enable-background:new 0 0 21.5 25.3;" xml:space="preserve">
<style type="text/css">
	.st0{fill:none;stroke:#95A0AA;stroke-width:1.75;stroke-linecap:round;stroke-linejoin:round;stroke-miterlimit:10;}
</style>
<rect x="4.6" y="4.5" class="st0" width="12.4" height="3.6"/>
<g>
	<line class="st0" x1="4.7" y1="12.4" x2="6.8" y2="12.4"/>
	<line class="st0" x1="4.7" y1="16.3" x2="6.8" y2="16.3"/>
	<line class="st0" x1="4.7" y1="20.1" x2="6.8" y2="20.1"/>
	<line class="st0" x1="9.7" y1="12.4" x2="11.8" y2="12.4"/>
	<line class="st0" x1="9.7" y1="16.3" x2="11.8" y2="16.3"/>
	<line class="st0" x1="9.7" y1="20.1" x2="11.8" y2="20.1"/>
	<line class="st0" x1="14.7" y1="12.4" x2="16.8" y2="12.4"/>
	<line class="st0" x1="14.7" y1="16.3" x2="16.8" y2="16.3"/>
	<line class="st0" x1="14.7" y1="20.1" x2="16.8" y2="20.1"/>
</g>
<path class="st0" d="M1.7,24.4c-0.5,0-0.9-0.4-0.9-0.9V1.7c0-0.5,0.4-0.9,0.9-0.9h18.1c0.5,0,0.9,0.4,0.9,0.9v21.8
	c0,0.5-0.4,0.9-0.9,0.9H1.7z"/>
</svg>
