<?xml version="1.0" encoding="utf-8"?>
<!-- Generator: Adobe Illustrator 19.1.0, SVG Export Plug-In . SVG Version: 6.00 Build 0)  -->
<svg version="1.1" id="Layer_2" xmlns="http://www.w3.org/2000/svg" xmlns:xlink="http://www.w3.org/1999/xlink" x="0px" y="0px"
	 viewBox="0 0 33.2 33.6" style="enable-background:new 0 0 33.2 33.6;" xml:space="preserve">
<style type="text/css">
	.st0{fill:none;stroke:#666766;stroke-width:1.75;stroke-linecap:round;stroke-linejoin:round;stroke-miterlimit:10;}
</style>
<g>
	<g>
		<g>
			<line class="st0" x1="12.3" y1="7.6" x2="26.1" y2="7.6"/>
			<line class="st0" x1="7.1" y1="7.6" x2="7.3" y2="7.6"/>
		</g>
		<g>
			<line class="st0" x1="12.3" y1="13.7" x2="26.1" y2="13.7"/>
			<line class="st0" x1="7.1" y1="13.7" x2="7.3" y2="13.7"/>
		</g>
		<g>
			<line class="st0" x1="12.3" y1="19.9" x2="26.1" y2="19.9"/>
			<line class="st0" x1="7.1" y1="19.9" x2="7.3" y2="19.9"/>
		</g>
	</g>
	<path class="st0" d="M28.2,0.9H5.1c-2.3,0-4.2,1.9-4.2,4.2v16.5c0,2.3,1.9,4.2,4.2,4.2h3.3c4.4,1.4,2.2,7,2.2,7l9.2-7h8.4
		c2.3,0,4.2-1.9,4.2-4.2V5.1C32.4,2.8,30.5,0.9,28.2,0.9z"/>
</g>
</svg>
