<?xml version="1.0" encoding="utf-8"?>
<!-- Generator: Adobe Illustrator 19.1.0, SVG Export Plug-In . SVG Version: 6.00 Build 0)  -->
<svg version="1.1" id="Layer_2" xmlns="http://www.w3.org/2000/svg" xmlns:xlink="http://www.w3.org/1999/xlink" x="0px" y="0px"
	 viewBox="0 0 23.8 23.8" style="enable-background:new 0 0 23.8 23.8;" xml:space="preserve">
<style type="text/css">
	.st0{fill:none;stroke:#666766;stroke-width:1.75;stroke-linecap:round;stroke-linejoin:round;stroke-miterlimit:10;}
</style>
<g>
	<circle class="st0" cx="11.9" cy="11.9" r="11"/>
	<path class="st0" d="M16.4,7.3c1.2,1.2,1.9,2.8,1.9,4.6c0,3.6-2.9,6.5-6.5,6.5s-6.5-2.9-6.5-6.5c0-1.7,0.7-3.3,1.8-4.5"/>
	<line class="st0" x1="11.9" y1="4.7" x2="11.9" y2="11.9"/>
</g>
</svg>
